437894 684641 509
547296 879932 525
836009 307638 509
159440 530229 470
969315 140223 525
687308 218937 509
754150 780811 468
971035 609518 525
280494 95481 443
483519 801053 509
720741 119995 509
954790 884168 507
879488 199321 525
573323 113973 470
142795 298709 443
868731 618878 525
469414 419663 444
212172 514477 470
916395 790092 525
563951 129336 470
406111 971043 525
225853 969676 525
600743 849669 525
362264 456136 449
35185 430966 449
930772 218812 525
712436 67097 509
201065 850416 525
953368 580490 525
718983 562682 509
670797 971186 525
143134 618335 470
764825 632172 504
4706 451117 449
439563 98080 449
743920 553830 509
424158 5461 449
920122 123226 525
551736 257798 470
14046 419356 449
921685 914302 432
475949 123444 449
657023 291506 509
593298 426094 470
186781 697874 509
970558 739004 525
445338 395914 449
885230 526964 525
870058 132088 525
164890 198640 365
799011 233590 509
499787 900793 525
490099 652833 509
636965 525786 509
373839 512177 470
595870 998428 525
620069 958881 525
927723 922302 476
488813 664952 509
942748 65177 525
792112 480201 509
970232 867355 507
605286 922430 525
33190 719243 509
521625 303230 470
477099 578227 470
299669 566460 470
442452 574854 470
735811 789426 468
473356 356482 449
690616 195008 509
59045 844564 525
184472 558277 470
213320 653854 509
627009 596357 509
738996 6750 509
163405 997593 525
21532 670320 509
136502 203294 383
503441 883267 525
771957 687046 504
966679 415047 525
449014 775496 509
247500 567536 470
103865 183348 383
751687 964172 525
477997 379960 449
648016 745401 504
957608 559787 525
908835 688362 525
497012 933174 525
813521 961431 525
381621 52580 443
258722 954134 525
320093 343473 384
205858 986172 525
160618 738883 509
768195 241154 509
129716 803580 509
477685 542326 470
183087 341389 443
532114 647830 509
616836 137780 470
556935 762043 509
31547 172985 383
918324 491028 525
878864 863874 432
853500 29514 525
99789 38171 351
657830 794808 504
298389 44883 443
858135 564084 525
377136 748337 509
640130 998186 525
855711 398374 525
198993 940612 525
877053 143971 525
408074 255832 441
230331 953023 525
175967 802776 509
787143 466274 509
670662 2147 509
681520 179326 509
880706 883355 326
601685 183211 470
841611 813332 525
376880 146122 443
519337 948245 525
201559 769427 509
843896 680937 525
628531 734596 504
598931 185015 470
959214 899903 507
713272 617653 509
105696 189614 383
857261 342296 525
654429 824155 504
128480 788643 509
693907 69074 509
497816 892637 525
984159 21867 525
597475 964685 525
50257 126757 354
644302 242563 509
665830 34952 509
407216 778637 509
422914 643198 509
673833 994961 525
674889 640576 442
568577 98590 470
508276 771361 509
126171 616619 470
287882 724671 509
905137 330819 525
443363 80137 449
630131 142781 509
175117 167590 347
54034 515781 470
604299 593717 403
652051 772012 504
344256 779691 509
866385 707469 525
128516 83152 354
699480 825795 504
915435 731133 525
305090 325280 384
550071 670004 509
264122 366287 441
478607 776713 509
236058 294674 407
318683 998585 525
244369 607188 470
89634 799499 509
113402 270898 443
748362 577573 509
436576 924209 525
40026 845349 525
824329 12192 509
261738 613753 470
986446 402956 525
846534 474631 525
110776 791918 509
597423 94871 470
539153 239777 470
687955 656731 442
890063 172781 525
626982 464787 509
233121 933531 525
485502 173269 449
122807 808505 509
709758 796859 468
829813 728368 468
655943 623816 509
185881 383205 443
264189 867504 525
806620 397729 509
185498 223865 386
957293 789814 525
278037 884533 525
733308 54109 509
311561 280559 389
138741 960477 525
544401 772369 509
813578 999295 525
179163 83616 383
216773 675469 509
88359 767565 509
722360 821103 468
756058 911476 525
178335 260605 443
523677 650596 509
630783 324020 509
687022 846277 525
601645 626808 509
674814 630251 442
384395 434461 449
174384 953642 525
692965 625935 509
970541 384418 525
911031 804206 525
890439 675600 525
110253 25404 354
448051 221844 449
968269 477770 525
299819 785941 509
331566 635485 509
56789 456970 449
364702 496647 449
556699 777563 509
86571 44587 351
638097 190271 509
10367 546608 470
481676 51284 449
23880 626171 470
28450 836608 509
797225 830448 450
228905 603138 470
122259 369427 443
474118 888452 525
584299 676193 509
668604 2703 509
26803 69683 340
683854 597680 509
76523 428878 449
519543 502328 470
343050 93391 443
456669 410068 418
987871 881312 507
534142 721422 509
442262 178036 449
379693 15095 443
565599 154270 470
875332 78504 525
554529 452270 470
537858 4465 470
775288 405167 509
989051 496548 525
912712 720163 525
946740 240646 525
53383 502170 449
14980 991297 525
474873 969868 525
871743 685043 525
115358 266005 443
410814 565187 470
955527 609722 525
